<svg width="20" height="21" viewBox="0 0 20 21" fill="none" xmlns="http://www.w3.org/2000/svg">
<path d="M20 10.2722C20 4.75021 15.522 0.272217 10 0.272217C4.478 0.272217 0 4.75021 0 10.2722C0 15.7942 4.478 20.2722 10 20.2722C10.0587 20.2722 10.1172 20.271 10.1758 20.2699V12.4854H8.02734V9.98154H10.1758V8.13904C10.1758 6.0022 11.4803 4.83917 13.3864 4.83917C14.2992 4.83917 15.0838 4.90723 15.3125 4.93759V7.17087H13.9981C12.9611 7.17087 12.7603 7.66373 12.7603 8.38684V9.98154H15.2399L14.9167 12.4854H12.7603V19.8859C16.9402 18.6876 20 14.8367 20 10.2722Z" fill="#0A0A0A"/>
</svg>
